number_of_issues,shard
257816,51
243019,52
280383,60
246896,22
300625,59
217256,44
243414,11
218755,42
268783,40
210598,43
318124,9
356845,15
231252,26
252450,48
294491,57
191732,61
257849,19
256318,30
231545,21
207596,3
251743,17
264753,28
215994,37
228486,5
285721,56
264101,29
277087,54
217780,4
206107,34
264852,0
225150,63
200992,10
242074,35
236435,45
229217,6
225388,39
225342,36
213941,31
410994,50
215083,14
223211,13
226113,2
248532,16
231582,62
215280,41
211553,46
184328,32
262100,53
227069,7
213816,38
217429,12
230047,24
253184,25
212512,49
211462,47
215517,20
236527,33
234627,1
247460,18
198225,55
249208,27
200670,23
238742,58
243084,8
